{
  "defaultSeverity": "error",
  "extends": ["tslint:recommended", "tslint-config-prettier"],
  "rules": {
    "max-line-length": {
      "options": [100]
    },
    "interface-name": false,
    "member-ordering": false,
    "no-consecutive-blank-lines": false,
    "object-literal-sort-keys": false,
    "ordered-imports": false,
    "quotemark": [true, "single"],
    "variable-name": [true, "allow-leading-underscore"]
  },
  "linterOptions": {
    "exclude": ["node_modules", "public", "client"]
  }
}
